{
  "pipeline":[
    "untransformed.las",
    {
      "type":"filters.voxelgrid"
    },
    {
        "type": "readers.las",
        "filename": "larger.las"
    },
    {
        "type":"filters.decimation",
        "step": 10
    },
    {
      "type":"writers.las",
      "filename":"smaller.las"
    }
  ]
}
